Orthogonal Regression • nmmr
…
Across many simulated datasets, the ordinary least squares method estimates a slope that is too small, whereas the orthogonal regression is unbiased. The dashed vertical line marks the true slope.

These simulations suggest that ordinary least squares is indeed biased, whereas orthogonal regression gives a more accurate slope.

Application to data

We can apply this same method to estimate a slope for each voxel in the provided dataset, sub02. To use get_slope, first widen the data.

sub02_wide <- sub02 %>%
  pivot_wider(names_from = contrast, values_from = y)

sub02_wide
#> # A tibble: 26,928 x 7
#>    sub   run   voxel  orientation ses      low    high
#>    <fct> <fct> <fct>        <dbl> <fct>  <dbl>   <dbl>
#>  1 2     15    191852       0.785 3      3.36   6.39  
#>  2 2     15    197706       0.785 3     -2.84   0.0160
#>  3 2     15    197769       0.785 3     -2.03   4.14  
#>  4 2     15    197842       0.785 3      2.23   2.35  
#>  5 2     15    197906       0.785 3      2.86   2.11  
#>  6 2     15    197907       0.785 3      1.51   0.504 
#>  7 2     15    203688       0.785 3     -2.75   0.241 
#>  8 2     15    203689       0.785 3     -2.51  -2.34  
#>  9 2     15    203690       0.785 3     -3.16  -1.40  
#> 10 2     15    203753       0.785 3      0.711  0.427 
#> # … with 26,918 more rows
…
